multiplexer.vcd
$date
	Thu Sep 20 08:18:46 2018
$end
$version
	Icarus Verilog
$end
$timescale
	1ps
$end
$scope module behavioralMultiplexer $end
$var wire 1 ! address0 $end
$var wire 1 " address1 $end
$var wire 1 # in0 $end
$var wire 1 $ in1 $end
$var wire 1 % in2 $end
$var wire 1 & in3 $end
$var wire 1 ' out $end
$var wire 4 ( inputs [3:0] $end
$var wire 2 ) address [1:0] $end
$upscope $end
$scope module testMultiplexer $end
$var wire 1 * out $end
$var reg 1 + addr0 $end
$var reg 1 , addr1 $end
$var reg 1 - in0 $end
$var reg 1 . in1 $end
$var reg 1 / in2 $end
$var reg 1 0 in3 $end
$scope module multiplexer $end
$var wire 1 1 Nadd1Nadd2 $end
$var wire 1 2 Nadd1add2 $end
$var wire 1 3 Naddress0 $end
$var wire 1 4 Naddress1 $end
$var wire 1 5 OneOut $end
$var wire 1 6 ThreeOut $end
$var wire 1 7 TwoOut $end
$var wire 1 8 ZeroOut $end
$var wire 1 9 add1Nadd2 $end
$var wire 1 : add1add2 $end
$var wire 1 + address0 $end
$var wire 1 , address1 $end
$var wire 1 - in0 $end
$var wire 1 . in1 $end
$var wire 1 / in2 $end
$var wire 1 0 in3 $end
$var wire 1 * out $end
$var wire 1 ; outVal1 $end
$var wire 1 < outVal2 $end
$upscope $end
$upscope $end
$enddefinitions $end
#0
$dumpvars
x<
x;
x:
x9
x8
x7
x6
x5
x4
x3
x2
x1
00
0/
0.
1-
0,
0+
x*
bz )
bz (
x'
z&
z%
z$
z#
z"
z!
$end
#50000
14
13
06
0:
07
02
05
09
#100000
11
#150000
18
#200000
1;
#250000
1<
#300000
1*
#1000000
1+
#1050000
03
19
#1100000
01
#1150000
08
#1200000
0;
#1250000
0<
#1300000
0*
#2000000
1,
#2050000
04
1:
#2100000
09
#3000000
0+
#3050000
13
0:
#3100000
12
#4000000
1.
0-
0,
#4050000
14
02
#4100000
11
#5000000
1+
#5050000
03
19
#5100000
01
15
#5150000
1;
#5200000
1<
#5250000
1*
#6000000
1,
0+
#6050000
04
13
09
#6100000
12
05
#6150000
0;
#6200000
0<
#6250000
0*
#7000000
1+
#7050000
03
1:
#7100000
02
#8000000
1/
0.
0,
0+
#8050000
14
13
0:
#8100000
11
#9000000
1+
#9050000
03
19
#9100000
01
#10000000
1,
0+
#10050000
04
13
09
#10100000
12
#10150000
17
#10200000
1<
#10250000
1*
#11000000
1+
#11050000
03
1:
#11100000
02
#11150000
07
#11200000
0<
#11250000
0*
#12000000
10
0/
0,
0+
#12050000
16
14
13
0:
#12100000
1*
11
06
#12150000
0*
#13000000
1+
#13050000
03
19
#13100000
01
#14000000
1,
0+
#14050000
04
13
09
#14100000
12
#15000000
1+
#15050000
03
1:
#15100000
02
16
#15150000
1*
